{
  "SIGN IN": "签到",
  "SIGN UP": "注册",
  "Agriledger, Revolutionising the Supply Chain": "农民，使供应链变革",
  "Creating opportunities across the value chain": "在价值链上创造机会",
  "Guaranteeing Authenticity and Quantity": "保证真实性和数量",
  "Creating Transparency and Traceability": "创建透明度和可追溯性",
  "Save your Private key safely": "安全地保存你的私钥",
  "In profile section,copy the private keep and Keep somewhere else. in case you loose it,you wont be able to access":
  "在个人资料部分，复制私人保留和其他地方。如果你松动它，你将无法访问",
  "Save your account address too": "保存您的帐户地址",
  "In profile section,copy the address and keep securely.you will need that to login into app":
  "在个人资料部分，复制地址并保持安全。您将需要登录到应用程序",
  "Alright, I got it": "好的，我明白了",
  "Skip": "跳跃",
  "Assets": "资产",
  "Markets": "市场",
  "Communities": "社区",
  "Wallet": "钱包",
  "Profile": "轮廓",
  "Community": "社区",
  "Issuer Registration": "发行人注册",
  "Want to issue assets? Register first": "想要发行资产？先注册",
  "REGISTER":"寄存器",
  "Released Assets": "已发布资产",
  "You dont have any asset": "你没有任何资产",
  "COIN REQUEST": "硬币请求",
  "COIN TRANSFER": "硬币转移",
  "EXPENSES": "花费",
  "Assets": "资产",
  "Register as Issuer": "注册为发行人",
  "Registered Issuer name": "注册发行人姓名",
  "Assets Token": "资产令牌",
  "You dont have any asset token": "你没有任何资产标记",
  "My Issued Assets": "我发行的资产",
  "Chain assets": "连锁资产",
  "BALANCE": "平衡",
  "Write your name": "写你的名字",
  "Whats your location": "你的位置是什么",
  "Passcode": "密码",
  "Change": "更改",
  "Agriledger ID": "农民身份证",
  "COPY": "复制",
  "Balance": "平衡",
  "Private Key": "私钥",
  "Public Key": "公钥",
  "Address": "地址",
  "Block Height": "块高度",
  "UPDATE": "更新",
  "Issuer Registration": "发行人注册",
  "Name": "名称",
  "Description": "描述",
  "Register": "寄存器",
  "Transfer": "转让",
  "Asset Currency": "资产货币",
  "Sender": "寄件人",
  "Recipient Address": "收件人地址",
  "Amount": "量",
  "Fee": "费用",
  "Remark": "备注",
  "SEND": "发送",
  "Upload": "上传",
  "Cancel": "取消",
  "Upload Profile": "上传档案",
  "Supported Images (JPG/JPEG,PNG)": "支持的图像（JPG / JPEG，PNG）",
  "Choose your profile": "选择你的个人资料",
  "Done": "完成",
  "Failed": "失败",
  "Upload": "上传",
  "Remove": "去掉",
  "Please wait We are creating account for you...": "请稍候我们正在为您创建帐户...",
  "Agriledger ID": "农民身份证",
  "agriID": "agriID",
  "Paste here": "粘贴在这里",
  "Cancel": "取消",
  "Issuer name invalid.Name should be in all capital and 1-16 character long": "发行人名称无效。名称应该全部大写，长度为1-16个字符",
  "We could not get your private key": "我们不能得到你的私人密钥",
  "Something went wrong": "出了些问题",
  "Issuer description required": "发行人说明需要",
  "Issuer has been registered": "发行人已经注册",
  "Issuer could not be created.try again!": "发行人无法创建。再次尝试！",
  "Address can not be left blank": "地址不能留空",
  "Could not connect to server": "无法连接到服务器",
  "Something went wrong": "出了些问题",
  "Downloaded": "下载",
  "Invalid Amount": "无效金额",
  "Please enter recipient address": "请输入收件人地址",
  "Please choose different address other than yours": "请选择不同于您的地址",
  "Sent": "发送",
  "Asset name should not be more than 256 in length": "资产名称不得超过256个字符",
  "Asset currency required": "资产货币需要",
  "Asset currency invalid. If it is chain Level then BTC,ETH otherwise Publisher Name.Currency Name":
  "资产货币无效。如果是链接级别，则BTC，ETH，否则发行商名称。货币名称",
  "Estimate price is required": "估计价格是必需的",
  "Estimate price is invalid": "估计价格是无效的",
  "Exercise standard is required": "运动标准是必需的",
  "Exercise standard is invalid": "运动标准无效",
  "Asset description is required": "资产描述是必需的",
  "Asset description should not be more than 4096 in length": "资产描述不应超过4096",
  "Estimate unit is required": "估算单位是必需的",
  "Unlock condition is required": "解锁条件是必需的",
  "Invalid maximum amout of publisher": "发布商的最大数量无效",
  "Accuracy should me maximum 6 in length": "准确性应该是最大6的长度",
  "Asset category level one is required": "资产类别一级是必需的",
  "Choose next asset category": "选择下一个资产类别",
  "Asset has been created": "资产已创建",
  "Asset could not be created.try again!": "资产无法再创建。",
  "Passcode can not be left blank":"密码不能留空",
  "6 digit Passcode":"6位密码",
  "SAVE": "保存",
  "Please wait We are updating the passcode for you...": "请稍候我们正在更新您的密码..."



}
