{
  "SIGN IN": "SIGN IN",
  "SIGN UP": "SIGN UP",
  "Agriledger, Revolutionising the Supply Chain": "Agriledger, Revolutionising the Supply Chain",
  "Creating opportunities across the value chain": "Creating opportunities across the value chain",
  "Guaranteeing Authenticity and Quantity": "Guaranteeing Authenticity and Quantity",
  "Creating Transparency and Traceability": "Creating Transparency and Traceability",
  "Save your Private key safely": "Save your Private key safely",
  "In profile section,copy the private keep and Keep somewhere else. in case you loose it,you wont be able to access": "In profile section,copy the private keep and Keep somewhere else. in case you loose it,you wont be able to access",
  "Save your account address too": "Save your account address too",
  "In profile section,copy the address and keep securely.you will need that to login into app": "In profile section,copy the address and keep securely.you will need that to login into app",
  "Alright, I got it": "Alright, I got it",
  "Skip": "Skip",
  "Assets": "Assets",
  "Markets": "Markets",
  "Communities": "Communities",
  "Wallet": "Wallet",
  "Profile": "Profile",
  "Community": "Community",
  "Issuer Registration": "Issuer Registration",
  "Want to issue assets? Register first": "Want to issue assets? Register first",
  "REGISTER": "REGISTER",
  "Released Assets": "Released Assets",
  "You dont have any asset": "You dont have any asset",
  "COIN REQUEST": "COIN REQUEST",
  "COIN TRANSFER": "COIN TRANSFER",
  "EXPENSES": "EXPENSES",
  "Assets": "Assets",
  "Register as Issuer": "Register as Issuer",
  "Registered Issuer name": "Registered Issuer name",
  "Assets Token": "Assets Token",
  "You dont have any asset token": "You dont have any asset token",
  "My Issued Assets": "My Issued Assets",
  "Chain assets": "Chain assets",
  "BALANCE": "BALANCE",
  "Write your name": "Write your name",
  "Whats your location": "Whats your location",
  "Passcode": "Passcode",
  "Change": "Change",
  "Agriledger ID": "Agriledger ID",
  "COPY": "COPY",
  "Balance": "Balance",
  "Private Key": "Private Key",
  "Public Key": "Public Key",
  "Address": "Address",
  "Block Height": "Block Height",
  "UPDATE": "UPDATE",
  "Issuer Registration": "Issuer Registration",
  "Name": "Name",
  "Description": "Description",
  "Register": "Register",
  "Transfer": "Transfer",
  "Asset Currency": "Asset Currency",
  "Sender": "Sender",
  "Recipient Address": "Recipient Address",
  "Amount": "Amount",
  "Fee": "Fee",
  "Remark": "Remark",
  "SEND": "SEND",
  "Upload": "Upload",
  "Cancel": "Cancel",
  "Upload Profile": "Upload Profile",
  "Supported Images (JPG/JPEG,PNG)": "Supported Images (JPG/JPEG,PNG)",
  "Choose your profile": "Choose your profile",
  "Done": "Done",
  "Failed": "Failed",
  "Upload": "Upload",
  "Remove": "Remove",
  "Please wait We are creating account for you...": "Please wait We are creating account for you...",
  "Agriledger ID": "Agriledger ID",
  "agriID": "agriID",
  "Paste here": "Paste here",
  "Cancel": "Cancel",
  "Issuer name invalid.Name should be in all capital and 1-16 character long":
  "Issuer name invalid.Name should be in all capital and 1-16 character long",
  "We could not get your private key": "We could not get your private key",
  "Something went wrong": "Something went wrong",
  "Issuer description required": "Issuer description required",
  "Issuer has been registered": "Issuer has been registered",
  "Issuer could not be created.try again!": "Issuer could not be created.try again!",
  "Address can not be left blank": "Address can not be left blank",
  "Could not connect to server": "Could not connect to server",
  "Something went wrong": "Something went wrong",
  "Downloaded": "Downloaded",
  "Invalid Amount": "Invalid Amount",
  "Please enter recipient address": "Please enter recipient address",
  "Please choose different address other than yours": "Please choose different address other than yours",
  "Sent": "Sent",
  "Asset name should not be more than 256 in length": "Asset name should not be more than 256 in length",
  "Asset currency required": "Asset currency required",
  "Asset currency invalid. If it is chain Level then BTC,ETH otherwise Publisher Name.Currency Name":
  "Asset currency invalid. If it is chain Level then BTC,ETH otherwise Publisher Name.Currency Name",
  "Estimate price is required": "Estimate price is required",
  "Estimate price is invalid": "Estimate price is invalid",
  "Exercise standard is required": "Excercide standard is required",
  "Exercise standard is invalid": "Exercise standard is invalid",
  "Asset description is required": "Asset description is required",
  "Asset description should not be more than 4096 in length": "Asset description should not be more than 4096 in length",
  "Estimate unit is required": "Estimate unit is required",
  "Unlock condition is required": "Unlock condition is required",
  "Invalid maximum amout of publisher": "Invalid maximum amout of publisher",
  "Accuracy should me maximum 6 in length": "Accuracy should me maximum 6 in length",
  "Asset category level one is required": "Asset category level one is required",
  "Choose next asset category": "Choose next asset category",
  "Asset has been created": "Asset has been created",
  "Asset could not be created.try again!": "Asset could not be created.try again!",
  "6 digit Passcode":"6 digit Passcode",
  "Passcode can not be left blank":"Passcode can not be left blank",
  "SAVE": "SAVE",
  "Please wait We are updating the passcode for you...": "Please wait We are updating the passcode for you..."
}
